[
  {
    "id": 1,
    "title": "Manger du fromage",
    "pilots": [
      "Rocky fort"
    ],
    "type": 0,
    "difficulty": 1,
    "departure_date": "2018-03-21",
    "planet": "Nutrition"
  },
  {
    "id": 2,
    "title": "Boire du pipi de licorne",
    "pilots": [
      "Bob Felipe"
    ],
    "type": 0,
    "difficulty": 1,
    "departure_date": "2018-03-22",
    "planet": "Nutrition"
  }
]