[
  {"id": 0, "name": "RH"},
  {"id": 1, "name": "iOS"},
  {"id": 2, "name": "Agility"},
  {"id": 3, "name": "UX"},
  {"id": 4, "name": "Self-help"},
  {"id": 5, "name": "Android"},
  {"id": 6, "name": "Craftsmanship"}
]